{
    "uid": "bdyguk8gczxfkb",
    "title": "Matrix federation down",
    "folderUID": "cgymyaj7z",
    "ruleGroup": "Node",
    "condition": "C",
    "data": [
        {
            "refId": "A",
            "relativeTimeRange": {
                "from": 600,
                "to": 0
            },
            "datasourceUid": "mimir",
            "model": {
                "disableTextWrap": false,
                "editorMode": "builder",
                "expr": "matrix_homeserver_federation_ok",
                "fullMetaSearch": false,
                "includeNullMetadata": true,
                "instant": true,
                "intervalMs": 1000,
                "legendFormat": "__auto",
                "maxDataPoints": 43200,
                "range": false,
                "refId": "A",
                "useBackend": false
            }
        },
        {
            "refId": "C",
            "relativeTimeRange": {
                "from": 600,
                "to": 0
            },
            "datasourceUid": "__expr__",
            "model": {
                "conditions": [
                    {
                        "evaluator": {
                            "params": [
                                1
                            ],
                            "type": "lt"
                        },
                        "operator": {
                            "type": "and"
                        },
                        "query": {
                            "params": [
                                "C"
                            ]
                        },
                        "reducer": {
                            "params": [],
                            "type": "last"
                        },
                        "type": "query"
                    }
                ],
                "datasource": {
                    "type": "__expr__",
                    "uid": "__expr__"
                },
                "expression": "A",
                "intervalMs": 1000,
                "maxDataPoints": 43200,
                "refId": "C",
                "type": "threshold"
            }
        }
    ],
    "noDataState": "NoData",
    "execErrState": "Error",
    "for": "0s",
    "annotations": {
        "summary": "Matrix federation down"
    },
    "labels": {},
    "isPaused": false,
    "notification_settings": {
        "receiver": "Telegram"
    }
}
